{
  "name": "VaccineType",
  "fields": [
    {
      "fieldName": "name",
      "fieldType": "String",
      "fieldValidateRules": ["required", "minlength", "maxlength", "unique"],
      "fieldValidateRulesMinlength": "3",
      "fieldValidateRulesMaxlength": "20"
    },
    {
      "fieldName": "typeImage",
      "fieldType": "byte[]",
      "fieldTypeBlobContent": "image",
      "fieldValidateRules": ["maxbytes"],
      "fieldValidateRulesMaxbytes": "8000000"
    }
  ],
  "relationships": [],
  "changelogDate": "20201228204522",
  "entityTableName": "vaccine_type",
  "dto": "mapstruct",
  "pagination": "pagination",
  "service": "serviceImpl",
  "jpaMetamodelFiltering": false,
  "fluentMethods": true,
  "readOnly": false,
  "embedded": false,
  "clientRootFolder": "vaccineApp",
  "applications": "*",
  "microserviceName": "vaccineApp"
}
